%YAML 1.1
%TAG !u! tag:unity3d.com,2011:
--- !u!1 &7307411988628486730
GameObject:
  m_ObjectHideFlags: 0
  m_CorrespondingSourceObject: {fileID: 0}
  m_PrefabInstance: {fileID: 0}
  m_PrefabAsset: {fileID: 0}
  serializedVersion: 6
  m_Component:
  - component: {fileID: 3455198933510154766}
  - component: {fileID: 633019852775712906}
  - component: {fileID: 8149693117594926209}
  - component: {fileID: 7617514465692147592}
  m_Layer: 0
  m_Name: BrickSpriteShape
  m_TagString: Untagged
  m_Icon: {fileID: 0}
  m_NavMeshLayer: 0
  m_StaticEditorFlags: 0
  m_IsActive: 1
--- !u!4 &3455198933510154766
Transform:
  m_ObjectHideFlags: 0
  m_CorrespondingSourceObject: {fileID: 0}
  m_PrefabInstance: {fileID: 0}
  m_PrefabAsset: {fileID: 0}
  m_GameObject: {fileID: 7307411988628486730}
  m_LocalRotation: {x: -0, y: -0, z: -0.0025442159, w: 0.9999968}
  m_LocalPosition: {x: 103.31, y: 26.1, z: 0}
  m_LocalScale: {x: 1, y: 1, z: 1}
  m_Children: []
  m_Father: {fileID: 0}
  m_RootOrder: 0
  m_LocalEulerAnglesHint: {x: 0, y: 0, z: -0.29200003}
--- !u!1971053207 &633019852775712906
SpriteShapeRenderer:
  m_ObjectHideFlags: 0
  m_CorrespondingSourceObject: {fileID: 0}
  m_PrefabInstance: {fileID: 0}
  m_PrefabAsset: {fileID: 0}
  m_GameObject: {fileID: 7307411988628486730}
  m_Enabled: 1
  m_CastShadows: 1
  m_ReceiveShadows: 1
  m_DynamicOccludee: 0
  m_MotionVectors: 1
  m_LightProbeUsage: 1
  m_ReflectionProbeUsage: 1
  m_RayTracingMode: 0
  m_RenderingLayerMask: 1
  m_RendererPriority: 0
  m_Materials:
  - {fileID: 2100000, guid: a97c105638bdf8b4a8650670310a4cd3, type: 2}
  - {fileID: 2100000, guid: a97c105638bdf8b4a8650670310a4cd3, type: 2}
  m_StaticBatchInfo:
    firstSubMesh: 0
    subMeshCount: 0
  m_StaticBatchRoot: {fileID: 0}
  m_ProbeAnchor: {fileID: 0}
  m_LightProbeVolumeOverride: {fileID: 0}
  m_ScaleInLightmap: 1
  m_ReceiveGI: 1
  m_PreserveUVs: 0
  m_IgnoreNormalsForChartDetection: 0
  m_ImportantGI: 0
  m_StitchLightmapSeams: 1
  m_SelectedEditorRenderState: 0
  m_MinimumChartSize: 4
  m_AutoUVMaxDistance: 0.5
  m_AutoUVMaxAngle: 89
  m_LightmapParameters: {fileID: 0}
  m_SortingLayerID: 0
  m_SortingLayer: 0
  m_SortingOrder: 2
  m_Color: {r: 1, g: 1, b: 1, a: 1}
  m_MaskInteraction: 0
  m_ShapeTexture: {fileID: 2800000, guid: 2774e837b1d61be4cbe6dfccfff69cb8, type: 3}
  m_Sprites:
  - {fileID: 21300000, guid: 2774e837b1d61be4cbe6dfccfff69cb8, type: 3}
  - {fileID: 21300000, guid: 2774e837b1d61be4cbe6dfccfff69cb8, type: 3}
  - {fileID: 21300000, guid: 2774e837b1d61be4cbe6dfccfff69cb8, type: 3}
  - {fileID: 21300000, guid: 2774e837b1d61be4cbe6dfccfff69cb8, type: 3}
  - {fileID: 21300000, guid: 2774e837b1d61be4cbe6dfccfff69cb8, type: 3}
  - {fileID: 21300000, guid: 2774e837b1d61be4cbe6dfccfff69cb8, type: 3}
  - {fileID: 21300000, guid: 2774e837b1d61be4cbe6dfccfff69cb8, type: 3}
  - {fileID: 21300000, guid: 2774e837b1d61be4cbe6dfccfff69cb8, type: 3}
  - {fileID: 21300000, guid: 2774e837b1d61be4cbe6dfccfff69cb8, type: 3}
  m_LocalAABB:
    m_Center: {x: -9.969979, y: 1.1877072, z: -0.00005}
    m_Extent: {x: 9.969979, y: 1.1877072, z: 0.00005}
--- !u!114 &8149693117594926209
MonoBehaviour:
  m_ObjectHideFlags: 0
  m_CorrespondingSourceObject: {fileID: 0}
  m_PrefabInstance: {fileID: 0}
  m_PrefabAsset: {fileID: 0}
  m_GameObject: {fileID: 7307411988628486730}
  m_Enabled: 1
  m_EditorHideFlags: 0
  m_Script: {fileID: 11500000, guid: 90539df1cd5704abcb25fec9f3f5f84b, type: 3}
  m_Name: 
  m_EditorClassIdentifier: 
  m_Spline:
    m_IsOpenEnded: 1
    m_ControlPoints:
    - position: {x: -19.933018, y: 1.728665, z: 0}
      leftTangent: {x: 0, y: 0, z: 0}
      rightTangent: {x: 0, y: 0, z: 0}
      mode: 0
      height: 1
      bevelCutoff: 0
      bevelSize: 0
      spriteIndex: 0
      corner: 1
    - position: {x: -9.989704, y: 1.8634615, z: 0}
      leftTangent: {x: 0, y: 0, z: 0}
      rightTangent: {x: 0, y: 0, z: 0}
      mode: 0
      height: 1
      bevelCutoff: 0
      bevelSize: 0
      spriteIndex: 0
      corner: 1
  m_SpriteShape: {fileID: 11400000, guid: a1469fb6ae8640d429e37edf1ff03ce4, type: 2}
  m_FillPixelPerUnit: 100
  m_StretchTiling: 1
  m_SplineDetail: 16
  m_AdaptiveUV: 1
  m_StretchUV: 0
  m_WorldSpaceUV: 0
  m_CornerAngleThreshold: 30.1
  m_ColliderDetail: 16
  m_ColliderOffset: 0.5
  m_UpdateCollider: 1
  m_OptimizeCollider: 1
  m_OptimizeGeometry: 1
  m_EnableTangents: 0
  m_GeometryCached: 0
--- !u!68 &7617514465692147592
EdgeCollider2D:
  m_ObjectHideFlags: 0
  m_CorrespondingSourceObject: {fileID: 0}
  m_PrefabInstance: {fileID: 0}
  m_PrefabAsset: {fileID: 0}
  m_GameObject: {fileID: 7307411988628486730}
  m_Enabled: 1
  m_Density: 1
  m_Material: {fileID: 0}
  m_IsTrigger: 0
  m_UsedByEffector: 0
  m_UsedByComposite: 0
  m_Offset: {x: 0, y: 0}
  m_EdgeRadius: 0
  m_Points:
  - {x: -19.93996, y: 2.240618}
  - {x: -10.123329, y: 2.3736973}
  - {x: -9.996645, y: 2.3754144}
